29486, Abercrombie, Kim, AW00029486, Riders Company, Total Sales=584949.1308
------------------Sales----------------------
16667.3077, 1600.6864, 500.2145, 18768.2086
67369.2136, 6473.0955, 2022.8424, 75865.1515
54979.9007, 5275.9397, 1648.7312, 61904.5716
60079.0221, 5773.2819, 1804.1506, 67656.4546
61492.5041, 5942.3012, 1856.9691, 69291.7744
54184.2506, 5208.3469, 1627.6084, 61020.2059
41071.8424, 3932.6838, 1228.9637, 46233.4899
47192.4665, 4533.9235, 1416.8511, 53143.2411
34891.3250, 3375.6791, 1054.8997, 39321.9038
27951.6011, 2685.9319, 839.3537, 31476.8867
23388.9006, 2236.5151, 698.9110, 26324.3267
30143.0220, 2895.1573, 904.7367, 33942.9160
29489, Adams, Frances, AW00029489, Area Bike Accessories, Total Sales=428350.5326
------------------Sales----------------------
11397.4992, 1093.6394, 341.7623, 12832.9009
29479.3877, 2832.6003, 885.1876, 33197.1756
31282.4841, 3002.5801, 938.3063, 35223.3705
27579.3105, 2646.2468, 826.9521, 31052.5094
733.2159, 87.2586, 27.2683, 847.7428
812.4274, 78.3893, 24.4966, 915.3133
1394.0205, 130.8023, 40.8757, 1565.6985
2131.8743, 204.8349, 64.0109, 2400.7201
79635.1220, 7651.8607, 2391.2065, 89678.1892
63981.9338, 6122.7127, 1913.3477, 72017.9942
57449.6040, 5496.2454, 1717.5767, 64663.4261
74577.1531, 7145.4011, 2232.9378, 83955.4920
29497, Ferrier, François, AW00029497, Great Bikes , Total Sales=789884.2937
------------------Sales----------------------
42813.4333, 4107.1489, 1283.4840, 48204.0662
12372.7773, 1185.3141, 370.4107, 13928.5021
53033.1921, 5089.8485, 1590.5777, 59713.6183
40814.8280, 3915.5856, 1223.6205, 45954.0341
80634.8808, 7813.9087, 2441.8465, 90890.6360
72887.4109, 7005.1633, 2189.1135, 82081.6877
71599.4665, 6916.6891, 2161.4653, 80677.6209
49152.4316, 4750.9290, 1484.6653, 55388.0259
71235.1175, 6871.7928, 2147.4353, 80254.3456
57550.3179, 5543.6713, 1732.3973, 64826.3865
57374.4399, 5610.6124, 1753.3164, 64738.3687
91335.4896, 9060.1997, 2831.3124, 103227.0017
29507, Allen, Phyllis, AW00029507, eCommerce Bikes, Total Sales=502367.0397
------------------Sales----------------------
52803.4477, 5091.7865, 1591.1833, 59486.4175
97915.4075, 9418.0316, 2943.1349, 110276.5740
61800.9921, 5940.8882, 1856.5276, 69598.4079
93834.0766, 9101.7346, 2844.2921, 105780.1033
47413.7171, 4542.3746, 1419.4921, 53375.5838
36401.1336, 3493.2850, 1091.6516, 40986.0702
23586.0261, 2262.6888, 707.0903, 26555.8052
32258.7344, 3085.2140, 964.1294, 36308.0778
29509, Allen, Michael, AW00029509, Retail Sales and Service, Total Sales=337311.2711
------------------Sales----------------------
6783.7679, 651.4975, 203.5930, 7638.8584
28557.8750, 2739.4933, 856.0917, 32153.4600
29534.9446, 2835.2095, 886.0030, 33256.1571
30512.3991, 2929.0788, 915.3371, 34356.8150
49220.1646, 4738.9618, 1480.9256, 55440.0520
49380.0704, 4739.8790, 1481.2122, 55601.1616
44130.0247, 4231.5128, 1322.3477, 49683.8852
46990.4500, 4509.6858, 1409.2768, 52909.4126
7407.6960, 726.9833, 227.1823, 8361.8616
2568.8820, 250.0361, 78.1363, 2897.0544
1663.4340, 159.0405, 49.7001, 1872.1746
2780.7780, 273.9814, 85.6192, 3140.3786
29515, Amland, Maxwell, AW00029515, Serious Cycles, Total Sales=326175.9828
------------------Sales----------------------
75191.9599, 7234.3070, 2260.7209, 84686.9878
85982.4771, 8346.4572, 2608.2679, 96937.2022
51062.3928, 4924.1912, 1538.8098, 57525.3938
65160.8033, 6277.4229, 1961.6947, 73399.9209
340.9898, 33.6443, 10.5139, 385.1480
10532.3468, 1019.0225, 318.4445, 11869.8138
894.2400, 85.6831, 26.7760, 1006.6991
323.9940, 31.1034, 9.7198, 364.8172
29522, Armstrong, Thomas, AW00029522, Resale Services, Total Sales=554388.9371
------------------Sales----------------------
51235.0091, 4912.9311, 1535.2910, 57683.2312
20980.1520, 2016.0771, 630.0241, 23626.2532
61189.0793, 5872.4749, 1835.1484, 68896.7026
46519.1419, 4464.4687, 1395.1465, 52378.7571
39987.6526, 3833.8192, 1198.0685, 45019.5403
41005.0451, 3937.2758, 1230.3987, 46172.7196
31128.3693, 2986.5925, 933.3102, 35048.2720
29909.6622, 2872.1107, 897.5346, 33679.3075
46428.3351, 4430.5123, 1384.5351, 52243.3825
31328.4204, 2994.8421, 935.8882, 35259.1507
38575.0104, 3688.1195, 1152.5374, 43415.6673
54076.8860, 5248.8130, 1640.2541, 60965.9531
29523, Arthur, John, AW00029523, The Gear Store, Total Sales=696703.6050
------------------Sales----------------------
32971.3230, 3162.1366, 988.1677, 37121.6273
30593.8757, 2934.3889, 916.9965, 34445.2611
51137.4115, 4906.9384, 1533.4183, 57577.7682
74719.7785, 7173.0270, 2241.5709, 84134.3764
72019.6975, 6929.8067, 2165.5646, 81115.0688
66436.2142, 6395.1512, 1998.4848, 74829.8502
62702.5353, 6018.8217, 1880.8818, 70602.2388
69705.7546, 6746.7121, 2108.3475, 78560.8142
43997.5604, 4212.7095, 1316.4717, 49526.7416
33951.6300, 3247.7900, 1014.9344, 38214.3544
46031.0820, 4405.6442, 1376.7638, 51813.4900
34349.2656, 3362.0940, 1050.6544, 38762.0140
29543, Bates, Karel, AW00029543, Bike Boutique, Total Sales=321014.9284
------------------Sales----------------------
17146.5426, 1671.1474, 522.2336, 19339.9236
33644.3587, 3250.3374, 1015.7304, 37910.4265
20038.3553, 1934.0808, 604.4003, 22576.8364
37329.3665, 3599.2138, 1124.7543, 42053.3346
71029.1520, 6858.7068, 2143.3459, 80031.2047
43072.6920, 4171.9943, 1303.7482, 48548.4345
27078.9360, 2609.1499, 815.3594, 30503.4453
35536.6680, 3439.7370, 1074.9178, 40051.3228
29546, Beck, Christopher, AW00029546, Bulk Discount Store, Total Sales=534117.5619
------------------Sales----------------------
56817.8354, 5461.7709, 1706.8034, 63986.4097
51394.2049, 4937.5905, 1542.9970, 57874.7924
47084.1057, 4517.7421, 1411.7944, 53013.6422
49862.2699, 4788.4083, 1496.3776, 56147.0558
81476.3709, 7816.0663, 2442.5207, 91734.9579
57816.2580, 5526.8451, 1727.1391, 65070.2422
55790.5800, 5344.2309, 1670.0722, 62804.8831
74160.2280, 7105.0290, 2220.3216, 83485.5786
29559, Bernacchi, Robert, AW00029559, Safe Cycles Shop, Total Sales=499815.3125
------------------Sales----------------------
54801.3542, 5271.1576, 1647.2368, 61719.7486
44305.4838, 4258.5829, 1330.8072, 49894.8739
34218.0617, 3296.1131, 1030.0353, 38544.2101
32195.7427, 3082.7069, 963.3459, 36241.7955
87783.9431, 8563.6042, 2676.1263, 99023.6736
77475.2281, 7490.0571, 2340.6428, 87305.9280
47069.4121, 4553.2508, 1422.8909, 53045.5538
65466.8869, 6531.5368, 2041.1053, 74039.5290
29560, Berndt, Matthias, AW00029560, Number 1 Supply, Total Sales=356524.0763
------------------Sales----------------------
67745.1764, 6619.9664, 2068.7395, 76433.8823
59569.2312, 5753.9199, 1798.1000, 67121.2511
22820.8449, 2201.2616, 687.8942, 25710.0007
41637.5885, 4013.5065, 1254.2208, 46905.3158
44628.9968, 4306.6814, 1345.8380, 50281.5162
30687.7020, 2980.2259, 931.3206, 34599.2485
21524.1420, 2077.1758, 649.1174, 24250.4352
27710.1300, 2676.0354, 836.2611, 31222.4265
29562, Brown, Steven, AW00029562, Golf and Cycle Store, Total Sales=665292.3810
------------------Sales----------------------
91014.7853, 8770.4397, 2740.7624, 102525.9874
104111.5156, 10104.0859, 3157.5268, 117373.1283
78882.9289, 7604.6031, 2376.4385, 88863.9705
42729.5227, 8050.1539, 2515.6731, 53295.3497
112287.2527, 11080.9205, 3462.7876, 126830.9608
67778.5075, 6561.1536, 2050.3605, 76390.0216
36603.1395, 3552.2568, 1110.0802, 41265.4765
52108.7806, 5058.0614, 1580.6442, 58747.4862
29564, Billstrom, Mary, AW00029564, Favorite Toy Distributor, Total Sales=320894.2050
------------------Sales----------------------
85091.6670, 8920.8190, 2787.7559, 96800.2419
93077.7178, 9175.5265, 2867.3520, 105120.5963
44660.7780, 4301.1219, 1344.1006, 50306.0005
60915.7200, 5906.0162, 1845.6301, 68667.3663
29579, Brandon, Cornelius, AW00029579, Initial Bike Company, Total Sales=320244.2906
------------------Sales----------------------
34982.3068, 3362.2334, 1050.6979, 39395.2381
35418.1338, 3397.4896, 1061.7155, 39877.3389
32553.2291, 3124.1221, 976.2881, 36653.6393
29514.1242, 2831.8546, 884.9546, 33230.9334
40255.9142, 3856.1111, 1205.0347, 45317.0600
43451.7000, 4161.0303, 1300.3220, 48913.0523
32798.5620, 3143.0737, 982.2105, 36923.8462
35331.6600, 3505.9218, 1095.6006, 39933.1824
29580, Bready, Richard, AW00029580, Latest Sports Equipment, Total Sales=815914.2534
------------------Sales----------------------
14352.7713, 1375.9427, 429.9821, 16158.6961
87867.8426, 8429.9843, 2634.3701, 98932.1970
32576.7309, 3126.8358, 977.1362, 36680.7029
40705.3101, 3914.8964, 1223.4051, 45843.6116
78066.2178, 7556.8119, 2361.5037, 87984.5334
75002.6273, 7242.2603, 2263.2063, 84508.0939
63864.7068, 6130.5686, 1915.8027, 71911.0781
73963.2625, 7112.4540, 2222.6419, 83298.3584
74149.9515, 7159.5551, 2237.3610, 83546.8676
60519.9533, 5833.0003, 1822.8126, 68175.7662
52697.2377, 5053.0058, 1579.0643, 59329.3078
70533.0247, 6866.2977, 2145.7180, 79545.0404
29587, Brooks, John, AW00029587, Prosperous Tours, Total Sales=399672.8579
------------------Sales----------------------
71274.5372, 7156.5422, 2236.4195, 80667.4989
52719.4376, 5061.2410, 1581.6378, 59362.3164
30663.3284, 2930.7794, 915.8686, 34509.9764
42641.7932, 4106.1750, 1283.1797, 48031.1479
59333.5671, 5747.0999, 1795.9687, 66876.6357
38534.6325, 3667.5770, 1146.1178, 43348.3273
22608.8577, 2150.5215, 672.0380, 25431.4172
36831.1713, 3515.7080, 1098.6588, 41445.5381
29594, Browning, Dave, AW00029594, Eastside Sporting Goods, Total Sales=402874.3907
------------------Sales----------------------
88689.6425, 8581.1775, 2681.6180, 99952.4380
86493.3807, 8310.7993, 2597.1248, 97401.3048
85919.8459, 8244.0220, 2576.2569, 96740.1248
96605.9056, 9275.8990, 2898.7185, 108780.5231
29601, Bruno, Dirk, AW00029601, Custom Accessories Company, Total Sales=302983.1192
------------------Sales----------------------
58234.6192, 5582.4025, 1744.5008, 65561.5225
47565.7446, 4584.6777, 1432.7118, 53583.1341
22577.6026, 2150.3616, 671.9880, 25399.9522
36530.6354, 3483.6470, 1088.6397, 41102.9221
55641.3320, 5421.3308, 1694.1659, 62756.8287
23983.7040, 2305.4307, 720.4471, 27009.5818
6415.7220, 619.1510, 193.4847, 7228.3577
18057.9420, 1739.3357, 543.5424, 20340.8201
29614, Calafato, Ryan, AW00029614, Retail Mall, Total Sales=901346.8560
------------------Sales----------------------
35944.1562, 3461.7654, 1081.8017, 40487.7233
43803.1432, 4223.3908, 1319.8096, 49346.3436
39547.8476, 3819.0898, 1193.4656, 44560.4030
68880.0822, 6639.6938, 2074.9043, 77594.6803
150837.4387, 14990.6516, 4684.5786, 170512.6689
77480.9635, 7463.2019, 2332.2506, 87276.4160
53989.9760, 5242.7516, 1638.3599, 60871.0875
88328.0713, 8517.7002, 2661.7813, 99507.5528
81230.9424, 7943.6280, 2482.3837, 91656.9541
67815.5873, 6616.0233, 2067.5073, 76499.1179
32743.5660, 3155.3159, 986.0362, 36884.9181
58676.1206, 5693.6152, 1779.2547, 66148.9905
29615, Caldwell, Mari, AW00029615, Metro Metals Co., Total Sales=340396.3242
------------------Sales----------------------
98066.5013, 11138.1166, 3480.6614, 112685.2793
70336.8619, 6877.0228, 2149.0696, 79362.9543
54904.3800, 5300.3677, 1656.3649, 61861.1126
76677.4547, 7473.9225, 2335.6008, 86486.9780
29616, Calone, Barbara, AW00029616, Sheet Metal Manufacturing, Total Sales=695242.2258
------------------Sales----------------------
104881.9414, 10216.2352, 3192.5735, 118290.7501
95134.0915, 9144.5722, 2857.6788, 107136.3425
74205.0084, 7119.6764, 2224.8989, 83549.5837
105310.5088, 10111.1076, 3159.7211, 118581.3375
72616.5242, 6959.0350, 2174.6984, 81750.2576
53900.4608, 5151.8480, 1609.9525, 60662.2613
47450.6100, 4540.4811, 1418.9003, 53409.9914
63841.3128, 6110.7725, 1909.6164, 71861.7017
29617, Camacho, Lindsey, AW00029617, Thorough Parts and Repair Services, Total Sales=834475.9271
------------------Sales----------------------
19734.8665, 1896.6545, 592.7045, 22224.2255
47716.8992, 4584.2649, 1432.5828, 53733.7469
57142.9416, 5485.7224, 1714.2883, 64342.9523
47655.0602, 4575.6518, 1429.8912, 53660.6032
42396.4051, 4132.3469, 1291.3584, 47820.1104
43444.0996, 4180.1635, 1306.3011, 48930.5642
50262.9060, 4825.2390, 1507.8872, 56596.0322
45674.4609, 4391.3364, 1372.2926, 51438.0899
112611.9697, 10849.6699, 3390.5219, 126852.1615
86381.3810, 8279.5973, 2587.3742, 97248.3525
81696.6060, 7840.9784, 2450.3057, 91987.8901
106268.2380, 10188.9222, 3184.0382, 119641.1984
29618, Camargo, Gustavo, AW00029618, Uttermost Bike Shop, Total Sales=348640.9465
------------------Sales----------------------
49484.6201, 4780.9679, 1494.0525, 55759.6405
52295.4773, 5018.2852, 1568.2141, 58881.9766
42740.6653, 4100.9776, 1281.5555, 48123.1984
43180.9774, 4142.6873, 1294.5898, 48618.2545
34352.0520, 3280.2307, 1025.0721, 38657.3548
28881.9660, 2756.2685, 861.3339, 32499.5684
26775.4740, 2559.7641, 799.9263, 30135.1644
31964.6040, 3048.5218, 952.6631, 35965.7889
29624, Cantoni, Joseph, AW00029624, Tread Industries, Total Sales=486937.5937
------------------Sales----------------------
121761.9396, 11871.5033, 3709.8448, 137343.2877
126198.3362, 12277.2447, 3836.6390, 142312.2199
89704.2720, 8621.6389, 2694.2622, 101020.1731
94327.0022, 9093.2654, 2841.6454, 106261.9130
29629, Carlisle, Carlton, AW00029629, Camping and Sports Store, Total Sales=389437.6577
------------------Sales----------------------
96485.4353, 11308.8707, 3534.0221, 111328.3281
97647.7200, 9417.2592, 2942.8935, 110007.8727
59234.8380, 5702.0229, 1781.8822, 66718.7431
89981.7900, 8686.4181, 2714.5057, 101382.7138
29637, Carreras, Donna, AW00029637, Advanced Bike Components, Total Sales=407563.0075
------------------Sales----------------------
15439.0357, 1484.4652, 463.8954, 17387.3963
14494.3943, 1393.5686, 435.4902, 16323.4531
15251.8156, 1462.8511, 457.1410, 17171.8077
9853.7837, 943.6944, 294.9045, 11092.3826
59292.4303, 5688.9705, 1777.8033, 66759.2041
42720.3360, 4095.8832, 1279.9635, 48096.1827
23383.1281, 2231.9966, 697.4989, 26312.6236
39230.5508, 3771.0402, 1178.4501, 44180.0411
68906.6458, 6674.8940, 2085.9044, 77667.4442
33726.9563, 3208.7244, 1002.7264, 37938.4071
13067.0107, 1234.5216, 385.7880, 14687.3203
26632.9708, 2524.7801, 788.9938, 29946.7447
29639, Castellucio, Joseph, AW00029639, Corner Bicycle Supply, Total Sales=887090.4106
------------------Sales----------------------
20644.2343, 1981.2698, 619.1468, 23244.6509
45851.7478, 4401.1682, 1375.3651, 51628.2811
54458.8986, 5227.5783, 1633.6182, 61320.0951
50154.2683, 4814.1318, 1504.4162, 56472.8163
96577.1430, 9280.1197, 2900.0374, 108757.3001
87693.7567, 8415.9678, 2629.9899, 98739.7144
86352.4057, 8283.8503, 2588.7032, 97224.9592
95434.9101, 9156.1375, 2861.2930, 107452.3406
64152.0919, 6191.9500, 1934.9844, 72279.0263
69894.0420, 6721.8141, 2100.5669, 78716.4230
65622.1670, 6296.2372, 1967.5741, 73885.9783
50937.3784, 4900.1500, 1531.2969, 57368.8253
29641, Casts, Raul, AW00029641, Westside Plaza, Total Sales=606819.6087
------------------Sales----------------------
163930.3943, 17948.5186, 5608.9121, 187487.8250
160378.3913, 16487.7988, 5152.4371, 182018.6272
94493.6651, 9076.1461, 2836.2957, 106406.1069
116153.8278, 11240.5499, 3512.6719, 130907.0496
29646, Cereghino, Stacey, AW00029646, Fitness Toy Store, Total Sales=820383.5466
------------------Sales----------------------
33997.3702, 3271.4942, 1022.3419, 38291.2063
42088.8187, 4054.7426, 1267.1071, 47410.6684
28091.4187, 2702.0418, 844.3880, 31637.8485
31457.4039, 3034.4835, 948.2761, 35440.1635
117274.3453, 11774.0993, 3679.4060, 132727.8506
99262.9841, 9645.5789, 3014.2434, 111922.8064
46261.8667, 4515.1056, 1410.9705, 52187.9428
97791.6210, 9505.0193, 2970.3185, 110266.9588
90421.7887, 8835.1327, 2760.9790, 102017.9004
62744.6240, 6091.0219, 1903.4443, 70739.0902
25065.0960, 2415.6779, 754.8993, 28235.6732
52815.3120, 5097.2385, 1592.8870, 59505.4375
29647, Cetinok, Baris, AW00029647, Casual Bicycle Store, Total Sales=402240.7953
------------------Sales----------------------
65721.6787, 6377.2984, 1992.9057, 74091.8828
51197.9881, 4917.5859, 1536.7456, 57652.3196
35765.7551, 3437.6440, 1074.2637, 40277.6628
80512.2219, 7743.5037, 2419.8449, 90675.5705
35035.4864, 3393.8927, 1060.5915, 39489.9706
29025.0180, 2808.9635, 877.8011, 32711.7826
28194.2700, 2701.4897, 844.2155, 31739.9752
31600.5181, 3048.4671, 952.6460, 35601.6312
29651, Chapla, Lee, AW00029651, Good Bike Shop, Total Sales=442256.8765
------------------Sales----------------------
6035.8246, 579.2061, 181.0019, 6796.0326
25618.7006, 2460.7397, 768.9812, 28848.4215
21847.3938, 2097.3014, 655.4067, 24600.1019
25738.2617, 2470.7694, 772.1155, 28981.1466
44013.7502, 4223.1093, 1319.7216, 49556.5811
48509.9926, 4648.7972, 1452.7491, 54611.5389
41602.4379, 3988.4936, 1246.4042, 46837.3357
44541.9552, 4266.9215, 1333.4130, 50142.2897
33592.0440, 3234.0449, 1010.6390, 37836.7279
35390.4060, 3397.9404, 1061.8564, 39850.2028
37520.6400, 3601.9455, 1125.6080, 42248.1935
28373.1960, 2723.8920, 851.2163, 31948.3043
29658, Choi, Mike, AW00029658, Grand Discount Store, Total Sales=329150.8419
------------------Sales----------------------
45064.2667, 4354.7089, 1360.8465, 50779.8221
29731.4902, 2877.8610, 899.3316, 33508.6828
23264.4941, 2246.8444, 702.1389, 26213.4774
36459.7670, 3515.8193, 1098.6935, 41074.2798
50576.5740, 4875.0260, 1523.4456, 56975.0456
46412.8153, 4449.9619, 1390.6131, 52253.3903
18775.6860, 1793.3367, 560.4177, 21129.4404
41944.4472, 4016.9572, 1255.2991, 47216.7035
29689, Culp, Scott, AW00029689, Friendly Bike Shop, Total Sales=600077.2722
------------------Sales----------------------
109253.4254, 10852.2979, 3391.3431, 123497.0664
72337.8288, 7004.4415, 2188.8880, 81531.1583
37020.0401, 3558.1621, 1111.9256, 41690.1278
75104.6539, 7284.8465, 2276.5145, 84666.0149
93397.6369, 9054.7214, 2829.6005, 105281.9588
49597.4077, 4774.8873, 1492.1523, 55864.4473
40026.1913, 3868.1560, 1208.7987, 45103.1460
55487.5731, 5299.6416, 1656.1380, 62443.3527
29690, Cunningham, Conor, AW00029690, Fashionable Bikes and Accessories, Total Sales=470639.5450
------------------Sales----------------------
81164.2329, 7884.6612, 2463.9566, 91512.8507
92832.3445, 8924.1680, 2788.8025, 104545.3150
56400.9317, 5414.8783, 1692.1495, 63507.9595
24607.4780, 4371.1602, 1365.9875, 30344.6257
39972.1321, 3875.0458, 1210.9518, 45058.1297
30063.6207, 2899.4169, 906.0678, 33869.1054
3372.3862, 330.9976, 103.4368, 3806.8206
16810.2243, 1635.5122, 511.0976, 18956.8341
23384.6520, 2280.8372, 712.7616, 26378.2508
15345.3600, 1495.3562, 467.2988, 17308.0150
5095.9500, 498.8810, 155.9003, 5750.7313
26261.2380, 2544.5099, 795.1593, 29600.9072
29692, D'Hers, Thierry, AW00029692, Citywide Service and Repair, Total Sales=366009.6535
------------------Sales----------------------
72131.9824, 6977.1271, 2180.3522, 81289.4617
44166.0665, 4234.1156, 1323.1611, 49723.3432
29407.0435, 2815.1516, 879.7349, 33101.9300
39283.2714, 3767.4920, 1177.3412, 44228.1046
49426.4110, 4772.8972, 1491.5304, 55690.8386
32649.4443, 3112.9383, 972.7932, 36735.1758
22748.7300, 2157.2620, 674.1444, 25580.1364
35209.9636, 3391.0092, 1059.6904, 39660.6632
29693, Danner, Ryan, AW00029693, Best Cycle Store, Total Sales=307800.8569
------------------Sales----------------------
66934.7011, 7313.1135, 2285.3480, 76533.1626
104153.3951, 10173.5026, 3179.2196, 117506.1173
37202.7812, 3571.9536, 1116.2355, 41890.9703
63761.3483, 6178.4826, 1930.7758, 71870.6067
29698, Dean, Jacob, AW00029698, Finer Riding Supplies, Total Sales=326883.5513
------------------Sales----------------------
17358.0101, 1664.9942, 520.3107, 19543.3150
19499.7922, 1870.0282, 584.3838, 21954.2042
16789.0543, 1612.6680, 503.9587, 18905.6810
20788.9219, 1999.1104, 624.7220, 23412.7543
21209.6683, 2062.0740, 644.3981, 23916.1404
20859.9112, 2017.8677, 630.5836, 23508.3625
23623.3817, 2276.2669, 711.3334, 26610.9820
26049.4939, 2518.5617, 787.0505, 29355.1061
43789.8480, 4231.1090, 1322.2216, 49343.1786
28746.5940, 2773.4150, 866.6922, 32386.7012
25409.3400, 2435.8805, 761.2127, 28606.4332
26034.9120, 2518.6901, 787.0907, 29340.6928
29701, DeGrasse, Kirk, AW00029701, Outdoor Equipment Store, Total Sales=841866.5522
------------------Sales----------------------
146154.5653, 14380.3298, 4493.8531, 165028.7482
100452.5877, 9735.9475, 3042.4836, 113231.0188
80564.8492, 7749.7720, 2421.8037, 90736.4249
104482.9633, 10161.0280, 3175.3213, 117819.3126
105505.3991, 10323.0958, 3225.9674, 119054.4623
70286.7015, 6935.9428, 2167.4821, 79390.1264
53476.7219, 5178.8472, 1618.3897, 60273.9588
85393.7413, 8334.2925, 2604.4664, 96332.5002
29702, Delaney, Aidan, AW00029702, Paint Supply, Total Sales=447403.4907
------------------Sales----------------------
26967.1293, 2597.0004, 811.5626, 30375.6923
46173.7216, 4443.0164, 1388.4426, 52005.1806
34558.1586, 3316.0510, 1036.2659, 38910.4755
11737.7891, 2241.2544, 700.3920, 14679.4355
47871.2182, 4585.2116, 1432.8786, 53889.3084
30032.4467, 2884.0559, 901.2675, 33817.7701
26461.1006, 2542.8688, 794.6465, 29798.6159
36204.2021, 3474.3846, 1085.7452, 40764.3319
51395.3220, 4973.9133, 1554.3479, 57923.5832
30541.1460, 2953.5384, 922.9807, 34417.6651
22138.8480, 2139.7831, 668.6822, 24947.3133
31786.1904, 3114.6122, 973.3163, 35874.1189
29703, Delmarco, Stefan, AW00029703, Preferred Bikes, Total Sales=465429.5734
------------------Sales----------------------
41250.4391, 3973.7250, 1241.7890, 46465.9531
57700.2263, 5547.7921, 1733.6850, 64981.7034
26592.0719, 2554.6464, 798.3270, 29945.0453
62270.6997, 5996.1056, 1873.7830, 70140.5883
79628.9429, 7848.4587, 2452.6433, 89930.0449
51103.1263, 4912.1330, 1535.0416, 57550.3009
38334.6520, 3669.0252, 1146.5704, 43150.2476
56174.6585, 5402.6906, 1688.3408, 63265.6899
29704, Demicell, Shawn, AW00029704, Rally Day Mall, Total Sales=377088.6246
------------------Sales----------------------
63233.6717, 6344.6781, 1982.7119, 71561.0617
43807.0013, 4199.6179, 1312.3806, 49318.9998
36874.6869, 3527.1574, 1102.2367, 41504.0810
42502.1691, 4095.7102, 1279.9094, 47877.7887
57068.3685, 5481.5535, 1712.9855, 64262.9075
31837.4560, 3027.4962, 946.0926, 35811.0448
22453.7528, 2128.0226, 665.0071, 25246.7825
36885.8796, 3520.0602, 1100.0188, 41505.9586
29705, Demott Jr, Della, AW00029705, Rewarding Activities Company, Total Sales=543440.5911
------------------Sales----------------------
50948.9161, 4908.5808, 1533.9315, 57391.4284
68958.1569, 6654.9216, 2079.6630, 77692.7415
38693.8697, 3711.3740, 1159.8044, 43565.0481
50778.1623, 4876.1489, 1523.7965, 57178.1077
52063.3585, 4994.8473, 1560.8898, 58619.0956
44241.9264, 4222.8013, 1319.6254, 49784.3531
20987.1856, 2001.1716, 625.3661, 23613.7233
44798.9579, 4288.1270, 1340.0397, 50427.1246
42829.6815, 4102.4775, 1282.0242, 48214.1832
27643.1360, 2623.0395, 819.6998, 31085.8753
15360.9720, 1453.5917, 454.2474, 17268.8111
25434.3820, 2411.9750, 753.7422, 28600.0992
29707, Dennis, Helen, AW00029707, Sales and Supply Company, Total Sales=469525.7490
------------------Sales----------------------
103299.6849, 10029.8859, 3134.3394, 116463.9102
79994.1743, 7750.9759, 2422.1800, 90167.3302
13841.6210, 1311.9369, 409.9803, 15563.5382
58041.2413, 5579.1554, 1743.4861, 65363.8828
75647.3619, 7406.6728, 2314.5852, 85368.6199
34640.0564, 3322.3732, 1038.2416, 39000.6712
14525.8788, 1364.3930, 426.3728, 16316.6446
36712.7103, 3480.7174, 1087.7242, 41281.1519
29712, Dickson, Holly, AW00029712, Registered Cycle Store, Total Sales=653973.7646
------------------Sales----------------------
89273.6793, 8619.2252, 2693.5079, 100586.4124
66141.7711, 6363.4176, 1988.5680, 74493.7567
43071.7873, 4146.6038, 1295.8137, 48514.2048
67717.6755, 6531.5113, 2041.0973, 76290.2841
111036.9487, 10758.4219, 3362.0068, 125157.3774
74298.5404, 7154.2907, 2235.7158, 83688.5469
45534.2812, 4375.0415, 1367.2005, 51276.5232
83147.6449, 8243.0584, 2575.9558, 93966.6591
29714, Dillon, Rudolph, AW00029714, Sundry Sporting Goods, Total Sales=432800.3352
------------------Sales----------------------
6105.3293, 584.8735, 182.7730, 6872.9758
29751.2786, 2851.9856, 891.2455, 33494.5097
28786.2466, 2763.1621, 863.4882, 32412.8969
29220.8373, 2802.7332, 875.8541, 32899.4246
51710.6749, 4963.7168, 1551.1615, 58225.5532
44080.9805, 4220.2020, 1318.8131, 49619.9956
45662.0012, 4379.5629, 1368.6134, 51410.1775
42464.0041, 4071.0899, 1272.2156, 47807.3096
26816.5751, 2579.8168, 806.1928, 30202.5847
27499.8660, 2642.9501, 825.9219, 30968.7380
30238.2360, 2902.3669, 906.9897, 34047.5926
22057.9860, 2118.5455, 662.0455, 24838.5770
29715, Dixon, Andrew, AW00029715, Excellent Riding Supplies, Total Sales=961675.8596
------------------Sales----------------------
25686.5186, 2468.9735, 771.5542, 28927.0463
48156.2081, 4631.2045, 1447.2514, 54234.6640
58704.1822, 5638.9922, 1762.1851, 66105.3595
48117.9107, 4627.4994, 1446.0936, 54191.5037
112722.8945, 10871.8672, 3397.4585, 126992.2202
97962.4024, 9429.4060, 2946.6894, 110338.4978
89758.5394, 8618.0731, 2693.1479, 101069.7604
96011.0908, 9250.6155, 2890.8174, 108152.5237
81431.7128, 7851.9442, 2453.7326, 91737.3896
56123.0880, 5394.6173, 1685.8179, 63203.5232
58724.2560, 5635.3192, 1761.0372, 66120.6124
80450.3760, 7735.1488, 2417.2340, 90602.7588
29716, Dockter, Blaine, AW00029716, Farthermost Bike Shop, Total Sales=781073.7175
------------------Sales----------------------
16544.5461, 1587.1682, 495.9901, 18627.7044
57804.9674, 5562.4486, 1738.2652, 65105.6812
61206.4782, 5875.6283, 1836.1339, 68918.2404
62343.9980, 5994.0731, 1873.1478, 70211.2189
107356.7904, 10487.9548, 3277.4859, 121122.2311
97455.6692, 9368.2437, 2927.5762, 109751.4891
79070.5683, 7586.9002, 2370.9063, 89028.3748
95415.1188, 9163.0956, 2863.4674, 107441.6818
35821.6748, 3423.4336, 1069.8230, 40314.9314
26886.4740, 2561.2565, 800.3926, 30248.1231
21534.1680, 2054.4286, 642.0090, 24230.6056
32062.0320, 3056.3076, 955.0961, 36073.4357
29722, D'sa, Reuben, AW00029722, Vigorous Exercise Company, Total Sales=954021.9235
------------------Sales----------------------
73761.5266, 7108.6377, 2221.4493, 83091.6136
88977.3784, 8579.0689, 2680.9590, 100237.4063
97078.3155, 9342.8615, 2919.6442, 109340.8212
40708.4413, 7996.6623, 2498.9570, 51204.0606
89333.2930, 8678.5256, 2712.0392, 100723.8578
89561.7540, 8716.2373, 2723.8241, 101001.8154
47271.1253, 4550.7601, 1422.1125, 53243.9979
59466.4190, 5711.8915, 1784.9661, 66963.2766
84713.7665, 8161.7159, 2550.5362, 95426.0186
61161.9757, 5876.2809, 1836.3378, 68874.5944
45169.8960, 4342.4608, 1357.0190, 50869.3758
64704.8794, 6354.4426, 1985.7633, 73045.0853
29724, Duerr, Bernard, AW00029724, Lease-a-Bike Shop, Total Sales=444336.9798
------------------Sales----------------------
18320.6894, 1763.0175, 550.9430, 20634.6499
22817.6077, 2197.4479, 686.7025, 25701.7581
11924.1917, 1149.0641, 359.0825, 13432.3383
23312.9857, 2239.5182, 699.8494, 26252.3533
69729.7597, 6825.5511, 2132.9847, 78688.2955
46280.8779, 4468.3217, 1396.3505, 52145.5501
35380.6400, 3402.0855, 1063.1517, 39845.8772
38464.6100, 3718.7598, 1162.1125, 43345.4823
46582.4759, 4536.1120, 1417.5350, 52536.1229
26696.4600, 2572.8166, 804.0052, 30073.2818
19702.7460, 1897.1549, 592.8609, 22192.7618
35047.6440, 3383.5159, 1057.3487, 39488.5086
29732, Elliott, Carol, AW00029732, Satin Finish Company, Total Sales=313985.4367
------------------Sales----------------------
45845.4516, 4430.7855, 1384.6205, 51660.8576
24644.2293, 2388.0452, 746.2641, 27778.5386
24252.0932, 2347.2143, 733.5045, 27332.8120
41211.6058, 3980.7907, 1243.9971, 46436.3936
33634.6800, 3271.7603, 1022.4251, 37928.8654
44595.3000, 4310.3111, 1346.9722, 50252.5833
24142.5120, 2336.2562, 730.0801, 27208.8483
40086.9291, 4037.7972, 1261.8116, 45386.5379
29734, Elson, Jauna, AW00029734, Original Bicycle Supply Company, Total Sales=469357.2899
------------------Sales----------------------
32726.4786, 3153.7696, 985.5530, 36865.8012
40341.1056, 3880.2722, 1212.5851, 45433.9629
27123.6534, 2613.3362, 816.6676, 30553.6572
31193.3153, 3002.1867, 938.1834, 35133.6854
47404.3026, 4552.5974, 1422.6867, 53379.5867
34681.7052, 3326.0349, 1039.3859, 39047.1260
24351.9855, 2339.8971, 731.2178, 27423.1004
36114.8778, 3458.9348, 1080.9171, 40654.7297
40912.5240, 3963.3753, 1238.5548, 46114.4541
35791.9061, 3468.7996, 1083.9999, 40344.7056
21131.9460, 2047.9871, 639.9960, 23819.9291
44879.6820, 4348.0911, 1358.7785, 50586.5516
29736, Eminhizer, Terry, AW00029736, Action Bicycle Specialists, Total Sales=363872.0389
------------------Sales----------------------
92278.0501, 10013.6366, 3129.2614, 105420.9481
71774.1812, 6891.8494, 2153.7029, 80819.7335
67831.3271, 6500.3898, 2031.3718, 76363.0887
89869.2763, 8684.9465, 2714.0458, 101268.2686
29744, Evans, John, AW00029744, Real Sporting Goods, Total Sales=449330.8159
------------------Sales----------------------
44991.4587, 4325.8859, 1351.8393, 50669.1839
41679.2782, 3995.2714, 1248.5223, 46923.0719
40230.9800, 3857.3296, 1205.4155, 45293.7251
47965.2654, 4606.1692, 1439.4279, 54010.8625
77241.2964, 7437.6220, 2324.2569, 87003.1753
51341.6887, 4912.1149, 1535.0359, 57788.8395
41791.0070, 3998.0017, 1249.3755, 47038.3842
53770.9719, 5205.7917, 1626.8099, 60603.5735
29770, Garza, Kathleen, AW00029770, Rural Cycle Emporium, Total Sales=500181.7264
------------------Sales----------------------
37479.6554, 3607.1944, 1127.2482, 42214.0980
35251.0065, 3393.8366, 1060.5739, 39705.4170
38254.4351, 3671.4373, 1147.3242, 43073.1966
26439.9864, 2552.2694, 797.5842, 29789.8400
73920.7391, 7112.1478, 2222.5462, 83255.4331
80691.0075, 7766.2065, 2426.9395, 90884.1535
68748.4235, 6643.7788, 2076.1809, 77468.3832
83076.5709, 8163.5307, 2551.1034, 93791.2050
29772, Gates, Janet, AW00029772, Modular Cycle Systems, Total Sales=660645.9404
------------------Sales----------------------
97801.7811, 9471.5301, 2959.8531, 110233.1643
99514.5024, 9571.0264, 2990.9458, 112076.4746
80857.1340, 7763.0053, 2425.9392, 91046.0785
78175.0524, 7530.7073, 2353.3460, 88059.1057
60843.8315, 5869.4474, 1834.2023, 68547.4812
61119.6420, 5876.4272, 1836.3835, 68832.4527
56181.0950, 5393.1834, 1685.3698, 63259.6482
52031.9090, 4997.8104, 1561.8158, 58591.5352
29783, Gimmi, Mary, AW00029783, Futuristic Sport Distributors, Total Sales=348070.0746
------------------Sales----------------------
62510.3099, 6085.8887, 1901.8402, 70498.0388
48434.2657, 4650.6744, 1453.3358, 54538.2759
28063.2571, 2678.6343, 837.0732, 31578.9646
31787.5245, 3056.8044, 955.2514, 35799.5803
64785.1613, 6269.9019, 1959.3443, 73014.4075
30922.3537, 2938.6530, 918.3291, 34779.3358
14805.5231, 1399.3803, 437.3064, 16642.2098
27769.0151, 2628.7595, 821.4873, 31219.2619
29789, Goldstein, Brian, AW00029789, Primary Bike Distributors, Total Sales=313549.3888
------------------Sales----------------------
15479.5500, 1488.4458, 465.1393, 17433.1351
16506.1424, 1586.9986, 495.9371, 18589.0781
6112.4089, 588.2628, 183.8321, 6884.5038
22124.5400, 2124.9369, 664.0428, 24913.5197
57381.4301, 5651.7991, 1766.1872, 64799.4164
31147.1853, 3024.3928, 945.1227, 35116.7008
15161.9116, 1454.3441, 454.4825, 17070.7382
26154.5589, 2531.0967, 790.9677, 29476.6233
41563.5060, 3999.4578, 1249.8306, 46812.7944
18136.9500, 1748.0191, 546.2560, 20431.2251
9477.9240, 911.7842, 284.9326, 10674.6408
18952.1160, 1824.6835, 570.2136, 21347.0131
29792, Gonzalez, Abigail, AW00029792, Genial Bike Associates, Total Sales=331823.8605
------------------Sales----------------------
46321.8880, 4480.1964, 1400.0614, 52202.1458
34271.4228, 3316.4667, 1036.3958, 38624.2853
23097.0182, 2232.9087, 697.7840, 26027.7109
33591.9302, 3253.9675, 1016.8648, 37862.7625
55934.0580, 5406.3906, 1689.4971, 63029.9457
40829.6520, 3955.0564, 1235.9551, 46020.6635
24667.0620, 2390.1614, 746.9254, 27804.1488
35676.7764, 3486.0355, 1089.3861, 40252.1980
29793, Graff, Michael, AW00029793, Commercial Sporting Goods, Total Sales=302119.1881
------------------Sales----------------------
103226.8852, 9956.7327, 3111.4790, 116295.0969
70011.4000, 6723.2953, 2101.0298, 78835.7251
36850.5686, 3539.1461, 1105.9832, 41495.6979
58120.4322, 5616.9417, 1755.2943, 65492.6682
29796, Grande, Jon, AW00029796, Riding Cycles, Total Sales=318625.6048
------------------Sales----------------------
92141.4113, 8946.1070, 2795.6584, 103883.1767
84413.1600, 8250.3327, 2578.2290, 95241.7217
41023.2874, 3932.0672, 1228.7710, 46184.1256
65123.4634, 6242.3752, 1950.7422, 73316.5808
29818, Harui, Roger, AW00029818, Brakes and Gears, Total Sales=989184.0820
------------------Sales----------------------
20544.7015, 1969.9765, 615.6177, 23130.2957
67458.9556, 6486.0468, 2026.8896, 75971.8920
66993.8289, 6430.8154, 2009.6298, 75434.2741
30998.0730, 2976.8317, 930.2599, 34905.1646
77342.8571, 7494.2421, 2341.9507, 87179.0499
72224.6384, 6958.0137, 2174.3793, 81357.0314
66265.3313, 6443.3243, 2013.5388, 74722.1944
78041.5646, 7537.4736, 2355.4605, 87934.4987
107270.1188, 10427.2505, 3258.5158, 120955.8851
110050.8354, 10818.0240, 3380.6325, 124249.4919
86975.0655, 8345.5531, 2607.9853, 97928.6039
92941.2222, 9504.3643, 2970.1138, 105415.7003
29825, Hendergart, James, AW00029825, Better Bike Shop, Total Sales=475892.0433
------------------Sales----------------------
20565.6206, 1971.5149, 616.0984, 23153.2339
18880.6522, 1814.8608, 567.1440, 21262.6570
73261.1513, 7032.2178, 2197.5680, 82490.9371
18031.6005, 1732.0409, 541.2628, 20304.9042
37141.1313, 3568.5834, 1115.1823, 41824.8970
33129.1617, 3174.6895, 992.0905, 37295.9417
35984.4499, 3448.5566, 1077.6739, 40510.6804
32230.2682, 3087.5357, 964.8549, 36282.6588
36701.5004, 3525.2833, 1101.6510, 41328.4347
48189.4814, 4613.1486, 1441.6089, 54244.2389
29140.8000, 2788.1476, 871.2961, 32800.2437
39450.7848, 3765.6618, 1176.7693, 44393.2159
29827, Hendricks, Valerie, AW00029827, First Bike Store, Total Sales=801766.2100
------------------Sales----------------------
5716.3102, 546.8759, 170.8987, 6434.0848
32383.1098, 3108.9064, 971.5333, 36463.5495
19742.7832, 1894.4513, 592.0160, 22229.2505
35123.3751, 3369.8811, 1053.0878, 39546.3440
98996.5779, 9628.0417, 3008.7630, 111633.3826
82582.8222, 7939.7536, 2481.1730, 93003.7488
80097.9950, 7686.8236, 2402.1324, 90186.9510
89596.3322, 8614.1751, 2691.9297, 100902.4370
71513.4488, 6885.7296, 2151.7905, 80550.9689
67686.0209, 6497.6565, 2030.5177, 76214.1951
61946.2800, 5941.1179, 1856.5994, 69743.9973
66479.7071, 6382.9283, 1994.6651, 74857.3005
29834, Herring, Cheryl, AW00029834, Small Bike Shop, Total Sales=481357.9195
------------------Sales----------------------
49096.1075, 4709.9034, 1471.8448, 55277.8557
29614.2125, 2839.3188, 887.2871, 33340.8184
56967.1318, 5467.7498, 1708.6718, 64143.5534
22579.6850, 4612.1607, 1441.3002, 28633.1459
34385.2153, 3318.9338, 1037.1668, 38741.3159
36234.3369, 3489.4139, 1090.4418, 40814.1926
34916.4348, 3353.7367, 1048.0427, 39318.2142
31201.3606, 3000.6158, 937.6925, 35139.6689
36380.3386, 3503.3380, 1094.7931, 40978.4697
19921.8961, 1922.5990, 600.8122, 22445.3073
32967.1166, 3163.2138, 988.5043, 37118.8347
40248.8592, 3929.6637, 1228.0199, 45406.5428
29844, Hirota, Nancy, AW00029844, Seventh Bike Store, Total Sales=452727.9318
------------------Sales----------------------
3746.2015, 357.9614, 111.8629, 4216.0258
23983.6988, 2302.0370, 719.3866, 27005.1224
19314.9998, 1853.8740, 579.3356, 21748.2094
26684.9956, 2560.4146, 800.1296, 30045.5398
50019.5321, 4845.8915, 1514.3411, 56379.7647
47948.7516, 4595.2331, 1436.0103, 53979.9950
42079.4855, 4035.4423, 1261.0757, 47376.0035
45918.6785, 4403.9738, 1376.2418, 51698.8941
34969.3511, 3355.9041, 1048.7200, 39373.9752
39596.1202, 3777.4016, 1180.4380, 44553.9598
35379.5040, 3384.2973, 1057.5929, 39821.3942
32467.1531, 3094.7770, 967.1178, 36529.0479
29853, Holman, Juanita, AW00029853, Affordable Sports Equipment, Total Sales=350717.9904
------------------Sales----------------------
13078.2699, 1258.9537, 393.4230, 14730.6466
34537.2578, 3323.2762, 1038.5238, 38899.0578
27763.7953, 2665.7893, 833.0592, 31262.6438
28097.0846, 2700.9948, 844.0609, 31642.1403
54130.4516, 5202.7398, 1625.8562, 60959.0476
49789.1608, 4786.6693, 1495.8342, 56071.6643
50953.3220, 4887.4811, 1527.3378, 57368.1409
53097.0890, 5095.2839, 1592.2762, 59784.6491
29861, Huntsman, Phyllis, AW00029861, Hardware Components, Total Sales=460174.8591
------------------Sales----------------------
115696.3313, 11215.3536, 3504.7980, 130416.4829
104958.8068, 10093.3592, 3154.1748, 118206.3408
85994.8887, 8279.2688, 2587.2715, 96861.4290
101833.4197, 9795.9518, 3061.2349, 114690.6064
29885, Johnson, David, AW00029885, Sure & Reliable Sporting Goods, Total Sales=435986.1289
------------------Sales----------------------
21356.1593, 2050.8186, 640.8808, 24047.8587
58494.7906, 5621.0332, 1756.5729, 65872.3967
58114.5796, 5577.1425, 1742.8570, 65434.5791
56396.5421, 5412.5278, 1691.4149, 63500.4848
57363.2615, 5546.9369, 1733.4178, 64643.6162
47836.8929, 4606.8742, 1439.6482, 53883.4153
43394.4135, 4166.4040, 1302.0013, 48862.8188
44161.7113, 4250.8556, 1328.3924, 49740.9593
29888, Jones, Brannon, AW00029888, New and Used Bicycles, Total Sales=445392.9589
------------------Sales----------------------
8580.0739, 823.6669, 257.3959, 9661.1367
32857.4070, 3153.9030, 985.5947, 36996.9047
28770.6060, 2761.3430, 862.9197, 32394.8687
26270.6036, 2522.1943, 788.1857, 29580.9836
47753.7712, 4646.8322, 1452.1351, 53852.7385
49578.7581, 4772.0210, 1491.2566, 55842.0357
43681.8330, 4191.6567, 1309.8927, 49183.3824
40518.0541, 3903.0114, 1219.6911, 45640.7566
33973.8900, 3291.1380, 1028.4806, 38293.5086
27729.5820, 2663.7440, 832.4200, 31225.7460
32382.3060, 3108.3993, 971.3748, 36462.0801
23316.2460, 2241.9591, 700.6122, 26258.8173
29889, Jordan, Jean, AW00029889, Separate Parts Corporation, Total Sales=323176.2786
------------------Sales----------------------
9799.9243, 942.0740, 294.3981, 11036.3964
31624.7504, 3035.8574, 948.7054, 35609.3132
23946.4874, 2298.1792, 718.1810, 26962.8476
29494.0504, 2831.3616, 884.8005, 33210.2125
61709.2825, 5962.7547, 1863.3609, 69535.3981
47238.6521, 4535.1276, 1417.2274, 53191.0071
39579.4797, 3794.3371, 1185.7304, 44559.5472
43579.4597, 4184.4547, 1307.6421, 49071.5565
29895, Kane, Lori, AW00029895, General Supplies, Total Sales=358195.7710
------------------Sales----------------------
52105.5079, 5024.9572, 1570.2991, 58700.7642
47151.2741, 4522.5332, 1413.2916, 53087.0989
44603.9551, 4276.6576, 1336.4555, 50217.0682
45840.9314, 4398.6574, 1374.5804, 51614.1692
31666.0980, 3032.7055, 947.7205, 35646.5240
38991.8940, 3725.2340, 1164.1356, 43881.2636
33904.4820, 3240.9397, 1012.7936, 38158.2153
23913.4500, 2268.3563, 708.8613, 26890.6676
29896, Krane, Judith, AW00029896, Noiseless Gear Company, Total Sales=330853.4536
------------------Sales----------------------
41020.1875, 3953.0525, 1235.3289, 46208.5689
42754.9923, 4114.7519, 1285.8600, 48155.6042
38994.1166, 3745.7529, 1170.5478, 43910.4173
22957.5775, 2215.0561, 692.2050, 25864.8386
35496.3630, 3418.1097, 1068.1593, 39982.6320
26225.9400, 2530.0627, 790.6446, 29546.6473
36065.9160, 3459.6653, 1081.1454, 40606.7267
50095.6227, 4938.9683, 1543.4276, 56578.0186
29901, Kelly, John, AW00029901, Sturdy Toys, Total Sales=481860.9122
------------------Sales----------------------
22717.5954, 2177.0702, 680.3344, 25575.0000
41097.6007, 3939.1506, 1230.9845, 46267.7358
63241.9485, 6069.1071, 1896.5960, 71207.6516
73568.3047, 7056.9319, 2205.2912, 82830.5278
32885.3728, 3166.7461, 989.6082, 37041.7271
39124.5205, 3768.5704, 1177.6782, 44070.7691
26581.4832, 2553.9455, 798.1080, 29933.5367
42528.4560, 4087.3443, 1277.2951, 47893.0954
30516.5072, 2941.0764, 919.0864, 34376.6700
25527.6450, 2456.9555, 767.7986, 28752.3991
23960.9846, 2302.4693, 719.5217, 26982.9756
6140.4181, 600.6902, 187.7157, 6928.8240
29904, Kesslep, Mary, AW00029904, Commerce Bicycle Specialists, Total Sales=340132.1268
------------------Sales----------------------
38604.0227, 3696.4943, 1155.1545, 43455.6715
36513.5572, 3503.5762, 1094.8676, 41112.0010
38285.4856, 3671.8006, 1147.4377, 43104.7239
26839.0921, 2568.5815, 802.6817, 30210.3553
40093.4149, 3837.0687, 1199.0840, 45129.5676
46675.7715, 4476.5593, 1398.9248, 52551.2556
32317.2300, 3091.3252, 966.0391, 36374.5943
42715.1988, 4174.2924, 1304.4664, 48193.9576
29910, Kim, Shane, AW00029910, Twelfth Bike Store, Total Sales=329064.4330
------------------Sales----------------------
33208.2292, 3177.9007, 993.0940, 37379.2239
38319.8765, 3672.1453, 1147.5454, 43139.5672
33688.8473, 3232.4420, 1010.1381, 37931.4274
25261.8384, 2423.7416, 757.4192, 28442.9992
44160.5991, 4216.9588, 1317.7996, 49695.3575
28637.5200, 2739.1123, 855.9726, 32232.6049
39392.3460, 3772.0547, 1178.7671, 44343.1678
49565.5983, 4826.2757, 1508.2111, 55900.0851
29913, Kirilov, Anton, AW00029913, Field Trip Store, Total Sales=757449.6804
------------------Sales----------------------
55971.1308, 5395.0513, 1685.9535, 63052.1356
60818.3513, 5852.8461, 1829.0144, 68500.2118
55911.9636, 5409.3556, 1690.4236, 63011.7428
71610.9964, 6878.5111, 2149.5347, 80639.0422
128873.2206, 12633.2536, 3947.8918, 145454.3660
112044.8055, 10808.0857, 3377.5268, 126230.4180
104325.1067, 10348.2360, 3233.8238, 117907.1665
82062.4546, 8070.2041, 2521.9388, 92654.5975
29919, Kogan, Eugene, AW00029919, Mountain Bike Center, Total Sales=514317.5252
------------------Sales----------------------
58378.5459, 5628.5916, 1758.9349, 65766.0724
44297.9357, 4244.2831, 1326.3385, 49868.5573
44669.7475, 4282.0400, 1338.1375, 50289.9250
44893.2146, 4306.3682, 1345.7401, 50545.3229
73437.9329, 7061.7998, 2206.8124, 82706.5451
62739.6660, 6025.3167, 1882.9115, 70647.8942
60119.0220, 5771.0667, 1803.4583, 67693.5470
68203.4100, 6549.5248, 2046.7265, 76799.6613
29923, Kozlowski, Edward, AW00029923, Roadway Bicycle Supply, Total Sales=493816.8809
------------------Sales----------------------
94139.2728, 10375.7030, 3242.4072, 107757.3830
122285.7240, 11760.4466, 3675.1396, 137721.3102
108184.1040, 10391.6881, 3247.4025, 121823.1946
112312.5540, 10820.9060, 3381.5331, 126514.9931
29924, Kennedy, Mitch, AW00029924, Reasonable Bicycle Sales, Total Sales=644168.1552
------------------Sales----------------------
84380.7379, 8222.4775, 2569.5242, 95172.7396
79066.7942, 7591.8377, 2372.4493, 89031.0812
82168.7862, 7881.9532, 2463.1104, 92513.8498
93032.5066, 8928.6506, 2790.2033, 104751.3605
66047.3337, 6328.6242, 1977.6951, 74353.6530
51377.0302, 4906.5055, 1533.2830, 57816.8187
54368.5080, 5208.7267, 1627.7271, 61204.9618
61593.4153, 5889.7336, 1840.5417, 69323.6906
29929, Kurtz, Jeffrey, AW00029929, Many Bikes Store, Total Sales=393520.7995
------------------Sales----------------------
37284.7428, 3576.1231, 1117.5385, 41978.4044
38235.7269, 3667.0793, 1145.9623, 43048.7685
40310.0159, 3867.6987, 1208.6558, 45386.3704
33977.5113, 3258.1525, 1018.1727, 38253.8365
46694.2363, 4466.1748, 1395.6796, 52556.0907
34696.2614, 3315.0169, 1035.9428, 39047.2211
58249.4040, 5585.0056, 1745.3143, 65579.7239
59894.2092, 5924.7046, 1851.4702, 67670.3840
29935, Leavitt, Elsa, AW00029935, Frugal Bike Shop, Total Sales=302690.5743
------------------Sales----------------------
40977.8088, 3941.1524, 1231.6101, 46150.5713
35291.1994, 3395.7372, 1061.1679, 39748.1045
33016.1680, 3167.0749, 989.7109, 37172.9538
36879.2560, 3552.0076, 1110.0024, 41541.2660
37540.9762, 3612.4473, 1128.8898, 42282.3133
37891.8840, 3648.2642, 1140.0826, 42680.2308
21306.4440, 2037.1037, 636.5949, 23980.1426
25757.0601, 2573.6624, 804.2695, 29134.9920
29938, Campbell, Frank, AW00029938, Trailblazing Sports, Total Sales=420767.7112
------------------Sales----------------------
40510.3042, 3894.0507, 1216.8909, 45621.2458
47370.7652, 4549.7243, 1421.7888, 53342.2783
25517.4189, 2446.8726, 764.6477, 28728.9392
13319.4071, 2394.0841, 748.1513, 16461.6425
49342.2867, 4774.8745, 1492.1483, 55609.3095
27258.3596, 2644.2200, 826.3188, 30728.8984
14819.6397, 1428.6120, 446.4412, 16694.6929
34930.4656, 3375.6214, 1054.8817, 39360.9687
38783.5620, 3743.7681, 1169.9275, 43697.2576
33623.7780, 3253.2511, 1016.6410, 37893.6701
12552.2040, 1209.7167, 378.0365, 14139.9572
34118.5356, 3329.7641, 1040.5513, 38488.8510
29940, Lee, Robertson, AW00029940, Perfect Toys, Total Sales=443136.5854
------------------Sales----------------------
122284.4578, 13529.6481, 4228.0150, 140042.1209
93397.7361, 9147.4960, 2858.5925, 105403.8246
66375.6480, 6398.8843, 1999.6513, 74774.1836
108982.7474, 10616.1592, 3317.5497, 122916.4563
29950, Li, Yale, AW00029950, Rapid Bikes, Total Sales=449023.1024
------------------Sales----------------------
37536.9632, 3611.5620, 1128.6131, 42277.1383
26171.9347, 2521.4019, 787.9381, 29481.2747
36045.9181, 3466.1888, 1083.1840, 40595.2909
13129.4681, 2307.2596, 721.0186, 16157.7463
50212.8485, 4825.5893, 1507.9966, 56546.4344
37649.1609, 3599.9752, 1124.9923, 42374.1284
20587.4764, 1968.5905, 615.1845, 23171.2514
31643.6024, 3032.8182, 947.7557, 35624.1763
43253.7414, 4151.6654, 1297.3954, 48702.8022
38380.9856, 3673.6169, 1148.0053, 43202.6078
24795.1796, 2356.5412, 736.4191, 27888.1399
38145.9918, 3699.9010, 1156.2190, 43002.1118
29955, Liu, David, AW00029955, Catalog Store, Total Sales=421079.0580
------------------Sales----------------------
32940.1556, 3174.1988, 991.9371, 37106.2915
41868.9060, 4027.9405, 1258.7314, 47155.5779
24509.8281, 2358.7032, 737.0948, 27605.6261
27802.9673, 2683.0350, 838.4484, 31324.4507
48300.3569, 4673.6460, 1460.5144, 54434.5173
38499.6136, 3728.7463, 1165.2332, 43393.5931
17259.8627, 1672.5054, 522.6580, 19455.0261
30041.9727, 2907.3407, 908.5440, 33857.8574
32164.5480, 3122.2216, 975.6942, 36262.4638
33608.0640, 3253.5407, 1016.7315, 37878.3362
14478.1620, 1403.3365, 438.5427, 16320.0412
32184.0288, 3124.7603, 976.4876, 36285.2767
29956, Liu, Jinghao, AW00029956, Chic Department Stores, Total Sales=331231.2975
------------------Sales----------------------
56590.5553, 5464.7665, 1707.7395, 63763.0613
33099.4312, 3204.2424, 1001.3258, 37304.9994
17254.0031, 1672.9394, 522.7936, 19449.7361
25585.0564, 2487.3126, 777.2852, 28849.6542
61251.4560, 5918.8754, 1849.6486, 69019.9800
39723.7140, 3833.4310, 1197.9472, 44755.0922
23774.1360, 2300.6922, 718.9663, 26793.7945
36550.8348, 3614.5867, 1129.5583, 41294.9798
29957, Liu, Kevin, AW00029957, Eastside Department Store, Total Sales=718258.8109
------------------Sales----------------------
129261.2540, 12556.6486, 3923.9527, 145741.8553
79000.3618, 7671.7582, 2397.4244, 89069.5444
44295.8324, 4232.2727, 1322.5852, 49850.6903
87340.1019, 8485.1677, 2651.6149, 98476.8845
104273.0197, 10489.2691, 3277.8966, 118040.1854
73605.9574, 7143.8639, 2232.4575, 82982.2788
52766.5746, 5213.1770, 1629.1178, 59608.8694
65683.3680, 6708.6741, 2096.4607, 74488.5028
29966, Lum, Richard, AW00029966, Larger Cycle Shop, Total Sales=605358.5420
------------------Sales----------------------
55699.8037, 5352.7901, 1672.7469, 62725.3407
59944.5457, 5770.8753, 1803.3985, 67518.8195
29325.8426, 2821.9908, 881.8721, 33029.7055
46301.0029, 4477.7294, 1399.2905, 52178.0228
65150.7457, 6339.1652, 1980.9891, 73470.9000
50378.9269, 4827.4862, 1508.5894, 56715.0025
31319.6394, 2991.3071, 934.7835, 35245.7300
45716.9177, 4423.3088, 1382.2840, 51522.5105
63707.6101, 6111.2836, 1909.7761, 71728.6698
36682.5594, 3498.4575, 1093.2680, 41274.2849
19176.8340, 1811.9993, 566.2498, 21555.0831
34123.6677, 3253.9467, 1016.8583, 38394.4727
29987, Mart¡nez, Frank, AW00029987, Rally Master Company Inc, Total Sales=402574.8569
------------------Sales----------------------
108651.1426, 11997.4475, 3749.2023, 124397.7924
74321.3769, 7298.0164, 2280.6301, 83900.0234
70731.3713, 6864.8492, 2145.2654, 79741.4859
101438.0899, 9979.0212, 3118.4441, 114535.5552
29992, Maynard, Sandra, AW00029992, Bike Dealers Association, Total Sales=483162.6054
------------------Sales----------------------
38510.8973, 3696.3979, 1155.1244, 43362.4196
33919.0748, 3261.5788, 1019.2434, 38199.8970
24030.5748, 2306.9054, 720.9079, 27058.3881
32245.7525, 3095.8235, 967.4449, 36309.0209
59238.9627, 5807.5724, 1814.8664, 66861.4015
43386.8027, 4146.6500, 1295.8281, 48829.2808
24016.5101, 2291.1157, 715.9737, 27023.5995
42653.9411, 4140.3413, 1293.8567, 48088.1391
54253.0364, 5209.6429, 1628.0134, 61090.6927
27947.5878, 2642.7199, 825.8500, 31416.1577
14608.2240, 1373.8629, 429.3322, 16411.4191
34239.5087, 3255.3758, 1017.3049, 38512.1894
29994, McGuigan, Robin, AW00029994, Health Spa, Limited, Total Sales=824331.7682
------------------Sales----------------------
28832.5289, 2775.1646, 867.2389, 32474.9324
43749.2686, 4227.3062, 1321.0332, 49297.6080
27722.1591, 2666.1894, 833.1842, 31221.5327
45943.7648, 4436.2300, 1386.3219, 51766.3167
120182.1850, 11751.9938, 3672.4981, 135606.6769
73798.9622, 7169.5929, 2240.4978, 83209.0529
41665.7599, 4017.2934, 1255.4042, 46938.4575
86085.8004, 8384.9987, 2620.3121, 97091.1112
97972.1953, 9772.6648, 3053.9578, 110798.8179
68404.6260, 6598.3844, 2061.9951, 77065.0055
39248.3580, 3775.9204, 1179.9751, 44204.2535
57193.1057, 5687.5408, 1777.3565, 64658.0030
29995, Mcanich, Stacie, AW00029995, Global Bike Retailers, Total Sales=381607.9961
------------------Sales----------------------
101223.4606, 10591.3654, 3309.8017, 115124.6277
79548.7562, 7704.7059, 2407.7206, 89661.1827
73016.5967, 7056.0374, 2205.0117, 82277.6458
83967.9181, 8058.3785, 2518.2433, 94544.5399
29996, McAskill-White, Katie, AW00029996, Fashionable Department Stores, Total Sales=322801.3294
------------------Sales----------------------
48693.9751, 4684.8681, 1464.0213, 54842.8645
36304.5380, 3484.7544, 1088.9858, 40878.2782
25124.6122, 2412.2373, 753.8241, 28290.6736
33630.3655, 3221.4121, 1006.6913, 37858.4689
53853.9505, 5179.8789, 1618.7122, 60652.5416
34038.2273, 3248.8144, 1015.2545, 38302.2962
24019.3814, 2292.4414, 716.3880, 27028.2108
30980.0885, 3023.1673, 944.7398, 34947.9956
29997, McCarthy, Lola, AW00029997, Closeout Boutique, Total Sales=604794.7839
------------------Sales----------------------
75351.5172, 7269.2649, 2271.6453, 84892.4274
87654.2364, 8481.3826, 2650.4320, 98786.0510
48743.2715, 4681.3297, 1462.9155, 54887.5167
59836.4792, 5760.7950, 1800.2484, 67397.5226
101609.2864, 9849.5162, 3077.9738, 114536.7764
63339.2580, 6135.0593, 1917.2060, 71391.5233
50489.2921, 4892.6314, 1528.9473, 56910.8708
49522.7787, 4929.0034, 1540.3136, 55992.0957
29998, McCarty, Jane, AW00029998, Bicycle Merchandise Warehouse, Total Sales=399980.8799
------------------Sales----------------------
140078.3959, 13697.6373, 4280.5117, 158056.5449
78756.7981, 7626.8351, 2383.3860, 88767.0192
57027.7694, 5497.3308, 1717.9159, 64243.0161
78942.2843, 7597.7260, 2374.2894, 88914.2997
30000, McCoy, James, AW00030000, Leather Seat Factory, Total Sales=533078.2844
------------------Sales----------------------
101336.8382, 9798.9577, 3062.1743, 114197.9702
60516.8114, 5861.5225, 1831.7258, 68210.0597
18986.0765, 1841.9934, 575.6229, 21403.6928
59222.5620, 5740.7507, 1793.9846, 66757.2973
77253.4169, 7601.3133, 2375.4104, 87230.1406
64654.2775, 6262.0852, 1956.9016, 72873.2643
28038.6360, 2724.5596, 851.4249, 31614.6205
62810.4352, 6080.6124, 1900.1914, 70791.2390
30043, Su, Min, AW00030043, Getaway Inn, Total Sales=360816.5491
------------------Sales----------------------
72301.9511, 7043.8365, 2201.1989, 81546.9865
35416.9871, 3425.6958, 1070.5299, 39913.2128
31541.5658, 3040.5902, 950.1844, 35532.3404
41158.8457, 3974.0235, 1241.8823, 46374.7515
39566.3847, 3803.0664, 1188.4582, 44557.9093
43977.8958, 4246.2616, 1326.9568, 49551.1142
20452.1780, 1941.1690, 606.6153, 22999.9623
35805.7413, 3454.8806, 1079.6502, 40340.2721
30046, Sullivan, Elizabeth, AW00030046, Extraordinary Bike Works, Total Sales=471689.9206
------------------Sales----------------------
48267.6020, 4654.3557, 1454.4862, 54376.4439
31548.6467, 3051.2963, 953.5301, 35553.4731
29669.6029, 2870.6299, 897.0718, 33437.3046
27105.9276, 2624.4015, 820.1255, 30550.4546
106929.5461, 10348.7426, 3233.9821, 120512.2708
68640.1406, 6648.4683, 2077.6464, 77366.2553
39215.4278, 3803.1144, 1188.4733, 44207.0155
67059.6362, 6573.0031, 2054.0635, 75686.7028
30048, Sultan, Marcia, AW00030048, Top Sports Supply, Total Sales=678828.8377
------------------Sales----------------------
92716.9059, 8961.2603, 2800.3939, 104478.5601
66707.6253, 6441.3383, 2012.9182, 75161.8818
54444.9062, 5248.6778, 1640.2118, 61333.7958
78405.7478, 7530.6035, 2353.3136, 88289.6649
98630.2745, 9582.4368, 2994.5115, 111207.2228
77394.5591, 7432.8021, 2322.7507, 87150.1119
51324.1945, 4931.4798, 1541.0875, 57796.7618
82935.6792, 7981.0738, 2494.0856, 93410.8386
30049, Sun, Nate, AW00030049, Racing Sales and Service, Total Sales=461467.3178
------------------Sales----------------------
74487.7550, 7185.7506, 2245.5471, 83919.0527
42866.5361, 4130.1064, 1290.6583, 48287.3008
19662.6610, 1890.3224, 590.7258, 22143.7092
37815.8335, 3643.3898, 1138.5593, 42597.7826
90020.6146, 8866.0475, 2770.6398, 101657.3019
59860.2760, 5852.0802, 1828.7751, 67541.1313
32970.8914, 3215.3812, 1004.8066, 37191.0792
51603.2340, 4972.7437, 1553.9824, 58129.9601
30050, Sunkammurali, Krishna, AW00030050, Metropolitan Bicycle Supply, Total Sales=631355.0743
------------------Sales----------------------
101725.1038, 9926.0363, 3101.8863, 114753.0264
72958.7103, 7050.6125, 2203.3164, 82212.6392
33205.2526, 3215.7691, 1004.9279, 37425.9496
44597.1778, 4333.0575, 1354.0805, 50284.3158
115310.4777, 11381.9261, 3556.8519, 130249.2557
71884.6078, 6967.8769, 2177.4615, 81029.9462
40350.0000, 3917.0002, 1224.0626, 45491.0628
79589.6160, 7862.2953, 2456.9673, 89908.8786
30055, Taft-Rider, Julie, AW00030055, Bicycle Lines Distributors, Total Sales=309440.2794
------------------Sales----------------------
39373.2236, 3815.0243, 1192.1951, 44380.4430
40134.6567, 3875.2238, 1211.0074, 45220.8879
22243.3338, 2150.8679, 672.1462, 25066.3479
26985.2625, 2612.9358, 816.5424, 30414.7407
51742.3860, 5002.2355, 1563.1986, 58307.8201
40438.7655, 3906.8808, 1220.9003, 45566.5466
29585.1600, 2858.9176, 893.4118, 33337.4894
23892.7656, 2478.6577, 774.5805, 27146.0038
30065, Theisen, Karen, AW00030065, Immediate Repair Shop, Total Sales=325324.0540
------------------Sales----------------------
36571.8493, 3525.7426, 1101.7946, 41199.3865
41365.4632, 3986.6354, 1245.8236, 46597.9222
30333.7908, 2913.6438, 910.5137, 34157.9483
33587.7730, 3238.7571, 1012.1116, 37838.6417
36907.4940, 3558.7689, 1112.1153, 41578.3782
39770.4253, 3827.0196, 1195.9436, 44793.3885
30500.1120, 2925.1922, 914.1226, 34339.4268
39790.2022, 3831.4359, 1197.3237, 44818.9618
30067, Thomas, Phyllis, AW00030067, Red Bicycle Company, Total Sales=442054.0945
------------------Sales----------------------
6124.1820, 587.6023, 183.6257, 6895.4100
62068.8727, 5966.6810, 1864.5878, 69900.1415
28409.9160, 2727.3519, 852.2975, 31989.5654
31578.8152, 3039.4463, 949.8270, 35568.0885
42262.6609, 4067.9067, 1271.2208, 47601.7884
30842.6667, 2971.1831, 928.4947, 34742.3445
32159.5245, 3086.9165, 964.6614, 36211.1024
37997.6620, 3659.1562, 1143.4863, 42800.3045
35151.1620, 3391.8142, 1059.9419, 39602.9181
40611.4141, 3899.2584, 1218.5182, 45729.1907
21286.5360, 2043.0072, 638.4398, 23967.9830
24002.4668, 2318.3167, 724.4740, 27045.2575
30074, Tian, Yuping, AW00030074, Tenth Bike Store, Total Sales=516254.7953
------------------Sales----------------------
7186.5371, 689.0520, 215.3287, 8090.9178
19985.7845, 1918.3929, 599.4978, 22503.6752
30015.7829, 2881.4668, 900.4584, 33797.7081
29597.9656, 2842.0067, 888.1271, 33328.0994
90172.6738, 8748.8747, 2734.0234, 101655.5719
95370.5312, 9161.3262, 2862.9144, 107394.7718
88446.7968, 8485.4147, 2651.6921, 99583.9036
97597.1168, 9373.7377, 2929.2930, 109900.1475
30076, Tibbott, Diane, AW00030076, Fun Times Club, Total Sales=302061.1054
------------------Sales----------------------
9398.8972, 899.9490, 281.2341, 10580.0803
24901.8424, 2392.6560, 747.7050, 28042.2034
15825.9667, 1519.2444, 474.7639, 17819.9750
30885.0908, 2964.2306, 926.3221, 34775.6435
50312.4090, 4868.9276, 1521.5399, 56702.8765
44025.5899, 4239.0882, 1324.7151, 49589.3932
41513.1360, 3984.4722, 1245.1476, 46742.7558
44987.8766, 4333.1282, 1354.1026, 50675.1074
4464.5640, 440.5036, 137.6574, 5042.7250
785.9580, 77.5479, 24.2337, 887.7396
134.4420, 13.2649, 4.1453, 151.8522
930.2820, 91.7878, 28.6837, 1050.7535
30094, Uddin, Sairaj, AW00030094, Quantity Discounts, Total Sales=381763.5549
------------------Sales----------------------
50912.9359, 4917.1771, 1536.6178, 57366.7308
47221.4229, 4548.4815, 1421.4005, 53191.3049
42594.4535, 4088.6017, 1277.6880, 47960.7432
50702.1158, 4881.8443, 1525.5763, 57109.5364
38335.3860, 3700.3913, 1156.3723, 43192.1496
39988.7760, 3842.7693, 1200.8654, 45032.4107
35670.7440, 3424.6492, 1070.2029, 40165.5961
33513.3660, 3224.1655, 1007.5517, 37745.0832
30103, Vance, Mandy, AW00030103, Metropolitan Equipment, Total Sales=725867.1659
------------------Sales----------------------
147390.9328, 14587.5413, 4558.6067, 166537.0808
87994.6863, 8470.6758, 2647.0862, 99112.4483
53917.6388, 5189.4785, 1621.7120, 60728.8293
93455.6598, 9027.8056, 2821.1893, 105304.6547
84756.2421, 8292.3791, 2591.3685, 95639.9897
75145.2966, 7328.1486, 2290.0465, 84763.4917
39913.8518, 3811.5840, 1191.1200, 44916.5558
61171.5876, 5860.9737, 1831.5543, 68864.1156
30107, Vanderkamp, Margaret, AW00030107, Permanent Finish Products, Total Sales=650362.0535
------------------Sales----------------------
49193.9864, 4734.6070, 1479.5647, 55408.1581
42563.6688, 4095.8220, 1279.9444, 47939.4352
34284.3135, 3301.3992, 1031.6872, 38617.3999
33074.3301, 3186.9185, 995.9120, 37257.1606
38189.0587, 3699.3592, 1156.0497, 43044.4676
34148.3461, 3298.2726, 1030.7102, 38477.3289
25187.5169, 2435.3204, 761.0376, 28383.8749
32359.8822, 3132.0553, 978.7673, 36470.7048
97526.0759, 9464.8875, 2957.7773, 109948.7407
73114.1510, 7024.4833, 2195.1510, 82333.7853
48522.8138, 4651.0208, 1453.4440, 54627.2786
68925.4289, 6802.5067, 2125.7833, 77853.7189
30109, Vargas, Nieves, AW00030109, Exhilarating Cycles, Total Sales=378936.0887
------------------Sales----------------------
70717.2970, 6895.3842, 2154.8075, 79767.4887
48997.2240, 4685.8442, 1464.3263, 55147.3945
22843.3007, 2188.3306, 683.8533, 25715.4846
56816.9351, 5526.3434, 1726.9823, 64070.2608
57950.2044, 5593.9347, 1748.1046, 65292.2437
34117.3890, 3239.1786, 1012.2433, 38368.8109
13804.8356, 1300.5815, 406.4317, 15511.8488
31154.4749, 2977.5861, 930.4957, 35062.5567
30111, Varkey Chudukatil, Ranjit, AW00030111, Great Bicycle Supply, Total Sales=311393.1457
------------------Sales----------------------
38816.8056, 3725.7234, 1164.2885, 43706.8175
108783.5872, 10451.1044, 3265.9701, 122500.6617
28547.1025, 2739.6669, 856.1459, 32142.9153
100378.9078, 9648.6426, 3015.2008, 113042.7512
30112, Vasquez, Patricia, AW00030112, Mail-Order Outlet, Total Sales=538333.4655
------------------Sales----------------------
93591.6217, 9068.1981, 2833.8119, 105493.6317
86679.6063, 8330.7615, 2603.3630, 97613.7308
70164.5193, 6727.4365, 2102.3239, 78994.2797
103362.3362, 9926.3990, 3101.9997, 116390.7349
39403.7220, 3806.1895, 1189.4342, 44399.3457
28744.9620, 2761.8256, 863.0705, 32369.8581
23564.9700, 2262.1150, 706.9109, 26533.9959
32445.5340, 3117.9845, 974.3702, 36537.8887
30113, Venugopal, Raja, AW00030113, Nearby Cycle Shop, Total Sales=307946.0796
------------------Sales----------------------
38818.2290, 3740.1306, 1168.7908, 43727.1504
36265.7138, 3486.7357, 1089.6049, 40842.0544
32730.2215, 3142.1564, 981.9239, 36854.3018
33974.7691, 3271.7050, 1022.4078, 38268.8819
31612.0704, 3047.1695, 952.2405, 35611.4804
43152.2910, 4160.8105, 1300.2533, 48613.3548
26709.5880, 2561.7505, 800.5470, 30071.8855
29923.0080, 3073.4952, 960.4672, 33956.9704
30117, Vessa, Robert, AW00030117, Totes & Baskets Company, Total Sales=919801.8188
------------------Sales----------------------
13196.0548, 1268.2589, 396.3309, 14860.6446
43615.4161, 4191.0645, 1309.7077, 49116.1883
54553.8443, 5236.5823, 1636.4320, 61426.8586
55740.7211, 5355.7207, 1673.6627, 62770.1045
86402.2489, 8398.2717, 2624.4599, 97424.9805
100216.5341, 9633.0649, 3010.3328, 112859.9318
78580.1157, 7542.3193, 2356.9748, 88479.4098
94673.1417, 9101.0461, 2844.0769, 106618.2647
78790.8120, 7573.1146, 2366.5983, 88730.5249
76571.5860, 7330.6656, 2290.8330, 86193.0846
73270.5060, 7028.7183, 2196.4745, 82495.6988
61144.5956, 5852.5959, 1828.9362, 68826.1277
30118, Vicknair, Caroline, AW00030118, World of Bikes, Total Sales=313671.5352
------------------Sales----------------------
39477.7558, 3778.7432, 1180.8572, 44437.3562
31261.9011, 2996.2766, 936.3364, 35194.5141
32712.3780, 3137.7037, 980.5324, 36830.6141
38382.5083, 3681.7848, 1150.5578, 43214.8509
44021.7035, 4232.4121, 1322.6288, 49576.7444
35758.3560, 3420.8622, 1069.0194, 40248.2376
24253.3620, 2314.3494, 723.2342, 27290.9456
32700.6053, 3182.9844, 994.6826, 36878.2723
